{
    "login_head" : "In Ihren Account einloggen",
    "email" : "E-Mail",
    "password" : "Passwort",
    "keep_me" : "Eingeloggt bleiben",
    "login" : "Einloggen",
    "forgot_password" : "Passwort vergessen",
    "faq" : "Häufig gestellte Fragen",
    "register_message" : "Sie haben noch keinen Account? <a href='/dashboard/register'>Erstellen Sie ein Benutzerkonto</a>",
    "required_email" : "E-Mail ist erforderlich",
    "incorrect_email" : "E-Mail sollte eine gültige Adresse sein",
    "maxlength_email" : "Die E-Mail darf nicht länger als 50 Zeichen sein",
    "required_password" : "Passwort wird benötigt",
    "minlength_password" : "Passwort muss mindestens 6 Zeichen lang sein",
    "user_notexists": "Benutzeranmeldeinformationen stimmen nicht überein oder Benutzer existiert nicht.",
    "user_notverified" : "Benutzer ist nicht verifiziert",
    "error_something_wrong": "Etwas ist schief gelaufen! Bitte versuchen Sie es später noch einmal.",
    "register_head" : "Einen neuen Account erstellen",
    "register_title": "Es dauert nur 30 Sekunden",
    "name": "Name",
    "confirm_password" : "Passwort bestätigen",
    "company_name" : "Firmenname",
    "already_account":"Haben Sie schon einen Account? <a href='/dashboard/login'> Loggen  </a>Sie sich einfach ein.",
    "i_agree" :"Ich habe die <a target='_blank' href='https://agricontrol.app/datenschutz.html'> Datenschutzerklärung </a> und die <a target='_blank' href='https://agricontrol.app/nutzungsbedingungen.html'>Nutzungsbedingungen</a> gelesen und stimme diesen zu.",
    "thanks_confirm_email": "Danke! Bitte bestätigen Sie Ihre E-Mail-Adresse",
    "confirmation_email_sent_message" : "Eine Bestätigungsnachricht wurde an {{email}} gesendet. Klicken Sie auf den darin enthaltenen Link, um Ihren Account zu aktivieren. Falls Sie keine solche Nachricht erhalten haben, können wir Ihnen eine weitere E-Mail zuschicken!",
    "resend" : "Erneut senden",
    "forgot_password_head" : "Passwort vergessen?",
    "forgot_password_title" : "Kein Grund zur Sorge. Geben Sie Ihre Mailadresse ein und setzen Ihr Passwort zurück.",
    "forgot_input_placeholder": "E-Mail-Addresse eingeben",
    "reset_password" : "Passwort zurücksetzen",
    "forgot_success_message" : "Eine Nachricht ist auf dem Weg",
    "email_not_exists" : "E-Mail-ID nicht vorhanden.",
    "set_password" : "Neues Passwort",
    "change_password" : "Passwort ändern",
    "download_new_export" : "Neuen Export als PDF herunterladen",
    "download_past_export" : "Alten Export als PDF herunterladen",
    "field_to_be_exported" : "Zu exportierende Felder",
    "time_period_to_be_exported" : "Zu exportierende Zeitperiode",
    "standard" : "Standard",
    "individual" : "Individuell",
    "the_last_complete_seven" : "Die vergangenen sieben Jahre",
    "start_date" : "Startdatum",
    "end_date" : "Enddatum",
    "tabular_export" : "Tabellarischer Export",
    "graphic_export" : "Graphischer Export",
    "export_error_message":"Bitte wählen Sie die zu exportierenden Felder und den zu exportierenden Zeitraum aus",
    "no_exports" : "Kein Export gefunden !!",
    "dashboard": "Übersicht",
    "export" : "Exportieren",
    "profile" : "Profil",
    "crops" : "Kulturen",
    "faq_short" : "Häufige Fragen",
    "logout": "Ausloggen",
    "profile_picture" : "Profilbild",
    "max_file_size_message" : "Die Datei darf nicht grösser als 3MB und 2000 * 2000 Pixel sein",
    "subscription_start" : "Start des Abonnements",
    "subscription_end" : "Ende des Abonnements",
    "trial_start" : "Start der Testversion ",
    "trial_end" : "Ende der Testversion",
    "language" : "Sprache",
    "phone_number" : "Telefonnummer",
    "address" : "Adresse",
    "zip_code" : "Postleitzahl",
    "city" : "Ort",
    "country" : "Land",
    "save" : "Speichern",
    "field_required" :"{{ fieldname }} ist erforderlich",
    "field_max_length" : "Der {{ fieldname }} darf nicht länger als {{length}} Zeichen sein",
    "confirm_password_max_length" : "Das Passwort muss mindestens 6 Zeichen lang sein",
    "profile_update_success" : "Das Benutzerprofil wurde erfolgreich aktualisiert",
    "new_password": "Neues Passwort",
    "confirm_new_password" : "Neues Passwort bestätigen",
    "complete_your_info_message" : "Sie müssen Ihre Adressdaten eingeben, bevor Sie eine Lizenz kaufen können.",
    "postal_pattern" : "Die Postleitzahl sollte eine Ziffer sein",
    "city_pattern" : "Dieses Feld darf keine Zahlen enthalten",
    "user_delete_confirm" : "Möchten Sie diesen Benutzer wirklich löschen?",
    "valid_file_extenstion" : "Bitte laden Sie nur Dateien mit den Endungen .jpeg / .jpg / .png / .gif hoch.",
    "password_not_match" : "Passwörter stimmen nicht überein",
    "user_list": "Benutzerliste",
    "add_new_member" : "Neues Mitglied hinzufügen",
    "member_name" : "Mitgliedsname",
    "status" : "Status",
    "action" : "Aktion",
    "userId" : "Benutzeridentifikation",
    "active" : "Aktiv",
    "deactive" : "Deaktivieren",
    "no_data_found" : "Keine Daten gefunden",
    "field_overview" : "Felderübersicht",
    "show_archived_field" : "Archivierte Felder anzeigen",
    "select_crop" : "Kultur auswählen",
    "new_culture" : "Neue Kultur",
    "reset_all_filters" : "Alle Filter zurücksetzen",
    "edit_field" : "Feld bearbeiten",
    "field_info" : "Feldinformationen",
    "archive_field" : "Feld archivieren",
    "unarchive_field" : "Feld unarchivieren",
    "total_size" : "Gesamtfläche",
    "number_of_field" : "Anzahl Felder",
    "swapped_cultures" : "Abgetauschte Kulturen",
    "size_per_crop" : "Fläche pro Pflanzenart",
    "show_more" : "Mehr anzeigen",
    "show_less" : "Weniger anzeigen",
    "footer_message" : "Gemacht mit Liebe, Sorgfalt und einer Prise Sonnenschein",
    "term_of_service" : "Nutzungsbedingungen",
    "site_notice" : "Impressum",
    "privacy" : "Datenschutz",
    "back" : "Zurück",
    "addField_first_message" : "Es ist kein Feld zum Anzeigen vorhanden. Bitte Feld zuerst hinzufügen.",
    "rule_break" : "Fruchtfolge-Regel gebrochen",
    "jan" : "Jan",
    "feb" : "Feb",
    "mar" : "Mrz",
    "apr" : "Apr",
    "may" : "Mai",
    "jun" : "Jun",
    "july" : "Jul",
    "aug" : "Aug",
    "sep" : "Sept",
    "oct" : "Okt",
    "nov" : "Nov",
    "dec" : "Dez",
    "date_from_greater" : "Datum von sollte kleiner als Datum bis sein.",
    "to_date_greater" : "Bis Datum sollte größer als Von Datum sein",
    "swapped_with_required" : "Abgetauschte ist erforderlich",
    "echo_size_required" : "Echogröße ist erforderlich",
    "crop_rotation_break_message" : "Fruchtfolge wird gebrochen! Möchten Sie trotzdem diese Kultur hinzufügen?",
    "archived_message" : "Möchten Sie dieses Feld wirklich archivieren?",
    "unarchived_message" : "Möchten Sie dieses Feld wirklich aus dem Archiv rausholen?",
    "archived_success" : "Erfolgreich archiviert",
    "unarchived_success" : "Erfolgreich Nicht archiviert",
    "minimum_one_year_data" : "Es können Daten für mindestens ein Jahr angezeigt werden.",
    "maximum_seven_year" : "Maximal können Siebenjahresdaten angezeigt werden.",
    "crop_rotation_rule_violated" : "Fruchtfolge-Regel verletzt",
    "crop_rotation_rule_broken" : "Fruchtfolge gebrochen",
    "swapped_with" : "Abgetauscht mit",
    "duration" : "Dauer",
    "from" : "Von",
    "before" : "Vorher",
    "create_new_field" : "Neues Feld erstellen",
    "field_name" : "Feldname",
    "field_size" : "Feldfläche",
    "in_a_are" : "in 'a' (Are)",
    "echo_area" : "Ökofläche?",
    "echo_area_size" : "Ökofläche",
    "notes" : "Notizen",
    "echo_should_be_number" : "Die Ökogröße sollte eine Zahl sein",
    "echo_size_exceeded" : "Die Eco-Größe wurde um die Feldgröße überschritten.",
    "add_new_culture" : "Neue Kultur hinzufügen",
    "edit_culture" : "Kultur bearbeiten",
    "delicate" : "Kultur",
    "plant_variety" : "Sorte",
    "cultivated_are" : "Anbaufläche",
    "remaining_spaced" : "Verfügbarer Platz:",
    "swapped_with_person" : "Abgetauscht mit:",
    "warning" : "Warnung",
    "delete" : "Löschen",
    "culture_duration" : "Anbauzeitraum",
    "field_details" : "Felddetails",
    "to":"Bis",
    "swap":"Abgetauscht?",
    "upgrade_now":"Jetzt upgraden!",
    "purchase_done":"Vielen Dank für Ihren Einkauf! Wir werden Ihnen in den nächsten Tagen eine Rechnung zusenden. Bei Fragen stehen wir Ihnen gerne unter <a href='mailto:help@agricontrol.ch'> help@agricontrol.ch </a> zur Verfügung.",
    "info_correct":"Sind diese Informationen korrekt?",
    "want_to_modify":"Nein, ich möchte etwas ändern.",
    "buy_license":"Ja, ich möchte die Lizenz kaufen.",
    "user_Suggestion":"Rückmeldung",
    "write_email":"Email schreiben",
    "probation_ends":"Ihre Probezeit endet in {{days}} Tagen. Wenn Sie Agricontrol weiterhin nutzen möchten, aktualisieren Sie bitte jetzt.",
    "feedback":"Sie haben gerade erst mit Agricontrol begonnen. Wie gefällt es Ihnen? Fällt Ihnen etwas schwer? Wir helfen Ihnen gerne weiter! Sie werden so schnell wie möglich eine Antwort erhalten.",
    "building_No.":"Strasse / Nr.",
    "pay_option" : "Zahlungsmöglichkeiten",
    "invoice_email" : "PDF-Rechnung per E-Mail",
    "payment_slip" : "Einzahlungsschein per E-Mail",
    "accept_term_message" : "Ich habe die <a href='https://agricontrol.app/nutzungsbedingungen.html' target='_blank'>Nutzungsbedingungen</a> und <a href='https://agricontrol.app/datenschutz.html' target='_blank'>Datenschutzbestimmungen</a> gelesen und stimme diesen zu.",
    "export_report_generated" : "Exportbericht generiert",
    "close": "Schließen",
    "view" : "Aussicht",
    "alert_trial_ended": "Ihre Probezeit ist abgelaufen. Wenn Sie Agricontrol weiterhin nutzen möchten, aktualisieren Sie bitte jetzt.",
    "upgrade_subscription" : "Upgrade-Abonnement",
    "eco_size" : "Ökofläche",
    "acre" : "Are",
    "crop_setting" : "Kulturen",
    "submit" : "registrieren",
    "in" : "in",
    "yes":"Ja",
    "no":"Nein",
    "alert":"Warnung",
    "tabular" : "Tabellarischer",
    "graphic" : "Graphischer",
    "cultivated_size_exceed": "Die Größe der Anbaufläche wird durch die Feldgröße überschritten.",
    "mail_sent": "Mail erfolgreich gesendet",
    "user_delete": "Benutzer erfolgreich löschen",
    "reset_password_success" : "Passwort erfolgreich aktualisiert",
    "email_confirmed_success" : "Ihre E-Mail-Adresse wurde erfolgreich bestätigt",
    "email_already" : "Email schon registriert",
    "data_not_added" : "Daten nicht hinzugefügt",
    "admin_notify_success" : "Admin-Benachrichtigung erfolgreich",
    "admin_notify_fail" : "Administratorbenachrichtigung fehlgeschlagen",
    "user_delete_fail": "Benutzer nicht gelöscht",
    "registration_success" : "Der Benutzer wurde erfolgreich hinzugefügt",
    "registration_mail_fail" : "Benutzer erfolgreich hinzugefügt und E-Mail nicht gesendet",
    "email_available" : "E-Mail ist verfügbar",
    "invalid_url" : "ungültige URL",
    "logout_msg" : "Der Benutzer hat sich erfolgreich abgemeldet",
    "old_password_wrong" : "Das alte Passwort ist falsch",
    "contact_to_admin" : "Etwas ist schief gelaufen! Bitte wenden Sie sich an den Administrator",
    "valid_token" : "gültiges Token",
    "unauthenticated" : "nicht authentifiziert",
    "update_success" : "erfolgreich aktualisiert",
    "update_fail" : "Nicht aktualisiert",
    "delete_success" : "Erfolgreich gelöscht",
    "plan_upgrade_success" : "Plan erfolgreich aktualisiert",
    "color_change_success" : "Farbe wurde erfolgreich geändert",
    "color_change_fail" : "Farbe nicht verändert",
    "added_success" : "Erfolgreich hinzugefügt",
    "added_fail" : "Nicht hinzugefügt",
    "fiels_size_error" : "Die Feldgröße sollte größer sein als die Größe der Kulturen",
    "success" : "Erfolg",
    "archieved_success" : "Feld erfolgreich archiviert",
    "archieved_fail" : "Feld nicht archiviert",
    "no_file" : "Bitte wählen Sie eine Datei zum Hochladen",
    "masters": "Meister",
    "language_setting" : "Spracheinstellungen",
    "nodata" : "Keine Daten vorhanden",
    "already_registerd_email" : "Diese E-Mail-Adresse ist bereits registriert."
}